cardid,Prediction_1
36405,Home_loan
17571,Home_loan
35197,Home_loan
102467,credit_card
35262,credit_card
89425,credit_card
64861,Home_loan
21543,overdraft
70481,credit_card
29944,Home_loan
59599,Home_loan
70182,overdraft
85259,Home_loan
14996,overdraft
66191,Home_loan
12782,credit_card
98383,overdraft
38014,overdraft
100754,overdraft
107728,Home_loan
93469,overdraft
23718,overdraft
54152,Home_loan
43800,credit_card
29640,overdraft
80306,Home_loan
34750,credit_card
25524,overdraft
27673,Home_loan
74463,overdraft
40690,overdraft
24210,overdraft
81487,Home_loan
50551,overdraft
92868,overdraft
67133,overdraft
46278,credit_card
82419,credit_card
98809,Home_loan
13893,overdraft
36191,Home_loan
106585,credit_card
19999,overdraft
17470,Home_loan
97148,credit_card
25097,overdraft
69802,credit_card
52128,overdraft
61789,credit_card
10236,Home_loan
95655,overdraft
109048,credit_card
33167,Home_loan
12938,overdraft
47923,credit_card
64752,credit_card
103168,credit_card
19519,Home_loan
89484,credit_card
90360,Home_loan
40090,overdraft
70428,credit_card
24864,overdraft
61342,credit_card
82801,overdraft
32160,Home_loan
59297,credit_card
94004,Home_loan
91074,overdraft
27496,Home_loan
80728,overdraft
70018,Home_loan
